{
  "name": "brickable",
  "css_prefix_text": "icon-",
  "css_use_suffix": false,
  "hinting": true,
  "units_per_em": 1000,
  "ascent": 850,
  "glyphs": [
    {
      "uid": "a73c5deb486c8d66249811642e5d719a",
      "css": "arrows-cw",
      "code": 59467,
      "src": "fontawesome"
    },
    {
      "uid": "f9c8ea86275ca16128235c6452b67b8e",
      "css": "user-secret",
      "code": 59392,
      "src": "fontawesome"
    },
    {
      "uid": "1400d5103edd2fa6d2d61688fee79a5a",
      "css": "ok-boxed",
      "code": 59393,
      "src": "fontawesome"
    },
    {
      "uid": "1a5cfa186647e8c929c2b17b9fc4dac1",
      "css": "plus",
      "code": 59394,
      "src": "fontawesome"
    },
    {
      "uid": "2d3be3e856fc1e4ac067590d2ded1b07",
      "css": "plus-boxed",
      "code": 59395,
      "src": "fontawesome"
    },
    {
      "uid": "d7271d490b71df4311e32cdacae8b331",
      "css": "home",
      "code": 59396,
      "src": "fontawesome"
    },
    {
      "uid": "c5fd349cbd3d23e4ade333789c29c729",
      "css": "eye",
      "code": 59397,
      "src": "fontawesome"
    },
    {
      "uid": "7fd683b2c518ceb9e5fa6757f2276faa",
      "css": "eye-off",
      "code": 59398,
      "src": "fontawesome"
    },
    {
      "uid": "7034e4d22866af82bef811f52fb1ba46",
      "css": "code",
      "code": 59399,
      "src": "fontawesome"
    },
    {
      "uid": "d35a1d35efeb784d1dc9ac18b9b6c2b6",
      "css": "pencil",
      "code": 59400,
      "src": "fontawesome"
    },
    {
      "uid": "bbfb51903f40597f0b70fd75bc7b5cac",
      "css": "trash-1",
      "code": 59401,
      "src": "fontawesome"
    },
    {
      "uid": "c8585e1e5b0467f28b70bce765d5840c",
      "css": "docs",
      "code": 59402,
      "src": "fontawesome"
    },
    {
      "uid": "04ff8d6592fe548b332b27ed87ce397a",
      "css": "box",
      "code": 59403,
      "src": "fontawesome"
    },
    {
      "uid": "5bb103cd29de77e0e06a52638527b575",
      "css": "wrench",
      "code": 59405,
      "src": "fontawesome"
    },
    {
      "uid": "21b42d3c3e6be44c3cc3d73042faa216",
      "css": "sliders",
      "code": 59406,
      "src": "fontawesome"
    },
    {
      "uid": "2d6150442079cbda7df64522dc24f482",
      "css": "down-dir",
      "code": 59407,
      "src": "fontawesome"
    },
    {
      "uid": "80cd1022bd9ea151d554bec1fa05f2de",
      "css": "up-dir",
      "code": 59408,
      "src": "fontawesome"
    },
    {
      "uid": "9dc654095085167524602c9acc0c5570",
      "css": "left-dir",
      "code": 59409,
      "src": "fontawesome"
    },
    {
      "uid": "fb1c799ffe5bf8fb7f8bcb647c8fe9e6",
      "css": "right-dir",
      "code": 59410,
      "src": "fontawesome"
    },
    {
      "uid": "81bb68665e8e595505272a746db07c7a",
      "css": "dot-outline",
      "code": 59411,
      "src": "fontawesome"
    },
    {
      "uid": "823a9e02e643318116fea40a00190e4e",
      "css": "asterisk",
      "code": 59412,
      "src": "fontawesome"
    },
    {
      "uid": "fa10777b2d88cc64cd6e4f26ef0e5264",
      "css": "terminal",
      "code": 59413,
      "src": "fontawesome"
    },
    {
      "uid": "8782cc70184b33096ae927590d1fadc4",
      "css": "screen",
      "code": 59414,
      "src": "entypo"
    },
    {
      "uid": "1189604bf305b6b03a74685ce60e6632",
      "css": "doc-text",
      "code": 59415,
      "src": "entypo"
    },
    {
      "uid": "78944e4652d6f9b8b506eaef331308cd",
      "css": "down-bold",
      "code": 59416,
      "src": "entypo"
    },
    {
      "uid": "0222089fb4194cc714dcc1ffd2525c11",
      "css": "left-bold",
      "code": 59417,
      "src": "entypo"
    },
    {
      "uid": "1a90b06af8614b12d8c8a5b90cc19ab3",
      "css": "right-bold",
      "code": 59418,
      "src": "entypo"
    },
    {
      "uid": "8c8f768607b8fc4c92c0f85b488e87e8",
      "css": "up-bold",
      "code": 59419,
      "src": "entypo"
    },
    {
      "uid": "054519608bca087aa306252471dda9c4",
      "css": "progress-1",
      "code": 59420,
      "src": "entypo"
    },
    {
      "uid": "3e49435dd1950a0b7543e13256c89e52",
      "css": "progress-2",
      "code": 59421,
      "src": "entypo"
    },
    {
      "uid": "d924bc68683f68ecf5e09e49731fd59a",
      "css": "progress-3",
      "code": 59422,
      "src": "entypo"
    },
    {
      "uid": "898ddc67cb7d9ae53dbd4cce78043e9e",
      "css": "flow-cascade",
      "code": 59423,
      "src": "entypo"
    },
    {
      "uid": "4bcb3aaa98736be3027bef7c76c55021",
      "css": "flow-branch",
      "code": 59424,
      "src": "entypo"
    },
    {
      "uid": "8a1d446e5555e76f82ddb1c8b526f579",
      "css": "flow-tree",
      "code": 59425,
      "src": "entypo"
    },
    {
      "uid": "6cea40aa6cc50057083e4f0a5b92410c",
      "css": "flow-line",
      "code": 59426,
      "src": "entypo"
    },
    {
      "uid": "5f88095dc5e638863a0c733e99c32568",
      "css": "flow-parallel",
      "code": 59427,
      "src": "entypo"
    },
    {
      "uid": "o1c30odwfvgcvi5b4jsg95sur8v6ghsp",
      "css": "grid",
      "code": 59428,
      "src": "modernpics"
    },
    {
      "uid": "11d74f891bce30f1bdf73d3259d59ed5",
      "css": "user",
      "code": 59429,
      "src": "mfglabs"
    },
    {
      "uid": "05ef9b5e8742971aa85b23cfcbe71594",
      "css": "users",
      "code": 59430,
      "src": "mfglabs"
    },
    {
      "uid": "a1bd477f92e956144558e6b6c671ed6e",
      "css": "web",
      "code": 59431,
      "src": "mfglabs"
    },
    {
      "uid": "77dc6351a75ce82023a99696c9dd1ed3",
      "css": "reply",
      "code": 59432,
      "src": "websymbols"
    },
    {
      "uid": "25a81737628d1e654a30ad412d7d6dd7",
      "css": "lines",
      "code": 59433,
      "src": "fontawesome"
    },
    {
      "uid": "5f3a0ebf2d13f60ec7ed76eb41ba9bb2",
      "css": "air",
      "code": 59434,
      "src": "entypo"
    },
    {
      "uid": "yb3vdwfxck5hmudxna4fq8fcwo9xari9",
      "css": "eq",
      "code": 59435,
      "src": "typicons"
    },
    {
      "uid": "1e29f134dfa565422897dacc67dee3e8",
      "css": "outline",
      "code": 59436,
      "src": "typicons"
    },
    {
      "uid": "6c985c88b4c460d6c5a3e34d53361286",
      "css": "dot",
      "code": 59437,
      "src": "typicons"
    },
    {
      "uid": "524f670504958d3e32ef887b99d8aca2",
      "css": "down-circle",
      "code": 59438,
      "src": "iconic"
    },
    {
      "uid": "a263473d2d406881ea08f991c1b38694",
      "css": "left-circle",
      "code": 59439,
      "src": "iconic"
    },
    {
      "uid": "ccee648b9e12a533f6957967e29ebdef",
      "css": "right-circle",
      "code": 59440,
      "src": "iconic"
    },
    {
      "uid": "55ba7d8f711ce265df7de4ab7f148e65",
      "css": "up-circle",
      "code": 59441,
      "src": "iconic"
    },
    {
      "uid": "7560ca08e3d83e43c58fcbf8f16d8f03",
      "css": "cog-circled",
      "code": 59442,
      "src": "elusive"
    },
    {
      "uid": "1dq4tek4k8ea7zlj4kc3w83itnutaxg5",
      "css": "cancel",
      "code": 59443,
      "src": "typicons"
    },
    {
      "uid": "43ab845088317bd348dee1d975700c48",
      "css": "ok-circled",
      "code": 59444,
      "src": "fontawesome"
    },
    {
      "uid": "12f4ece88e46abd864e40b35e05b11cd",
      "css": "ok",
      "code": 59445,
      "src": "fontawesome"
    },
    {
      "uid": "cad619ef78a5500c1e5b3d021d2fdd65",
      "css": "trash",
      "code": 59446,
      "src": "maki"
    },
    {
      "uid": "d2c499942f8a7c037d5a94f123eeb478",
      "css": "layers",
      "code": 59447,
      "src": "iconic"
    },
    {
      "uid": "f755a58fb985eeb70bd47d9b31892a34",
      "css": "minus",
      "code": 59448,
      "src": "fontawesome"
    },
    {
      "uid": "18ef25350258541e8e54148ed79845c0",
      "css": "minus-boxed",
      "code": 59449,
      "src": "fontawesome"
    },
    {
      "uid": "0f4cae16f34ae243a6144c18a003f2d8",
      "css": "cancel-circled",
      "code": 59450,
      "src": "fontawesome"
    },
    {
      "uid": "3df1557e2d6e84ec32bd47aee5bfdf59",
      "css": "delete",
      "code": 59451,
      "src": "typicons"
    },
    {
      "uid": "757afacc32d82967975cbb3b45cfb41b",
      "css": "desktop",
      "code": 59452,
      "src": "fontawesome"
    },
    {
      "uid": "500fc1f109021e4b1de4deda2f7ed399",
      "css": "laptop",
      "code": 59453,
      "src": "fontawesome"
    },
    {
      "uid": "f001fc3d4daa7da078e8c971e4f36977",
      "css": "tablet",
      "code": 59454,
      "src": "fontawesome"
    },
    {
      "uid": "0357f7abbc0babf43509669f332e41e6",
      "css": "mobile",
      "code": 59455,
      "src": "fontawesome"
    },
    {
      "uid": "77bcf90f0c68635bab5abfb4ed736696",
      "css": "publish",
      "code": 59456,
      "src": "entypo"
    },
    {
      "uid": "744a71fe4b5ab7c4f4b7cd598e9bf75a",
      "css": "window",
      "code": 59457,
      "src": "entypo"
    },
    {
      "uid": "86157b2f942e37940f8702a4a3221a2b",
      "css": "download-outline",
      "code": 59458,
      "src": "typicons"
    },
    {
      "uid": "9367acef93427f6301ee8ab42d45def7",
      "css": "upload-outline",
      "code": 59459,
      "src": "typicons"
    },
    {
      "uid": "348b04ea17f646fbc6a46e20ebe4fe12",
      "css": "download",
      "code": 59460,
      "src": "mfglabs"
    },
    {
      "uid": "4f3b31017c63ba04dc4f78ce7a8f02b1",
      "css": "upload",
      "code": 59461,
      "src": "mfglabs"
    },
    {
      "uid": "hx5rpl1lxy10jqibjq0jmu0dhruapso4",
      "css": "ipod",
      "code": 59462,
      "src": "modernpics"
    },
    {
      "uid": "a1be363d4de9be39857893d4134f6215",
      "css": "picture",
      "code": 59463,
      "src": "elusive"
    },
    {
      "uid": "44e04715aecbca7f266a17d5a7863c68",
      "css": "plus-1",
      "code": 59464,
      "src": "fontawesome"
    },
    {
      "uid": "130380e481a7defc690dfb24123a1f0c",
      "css": "circle",
      "code": 59465,
      "src": "fontawesome"
    },
    {
      "uid": "474656633f79ea2f1dad59ff63f6bf07",
      "css": "star",
      "code": 59466,
      "src": "fontawesome"
    },
    {
      "uid": "97bd5542ed3e143d2ee9b60e14487615",
      "css": "list-add",
      "code": 59468,
      "src": "entypo"
    },
    {
      "uid": "5d3ef4b7c90d2931e641b840ee42f694",
      "css": "loop",
      "code": 59469,
      "src": "iconic"
    },
    {
      "uid": "9e0404ba55575a540164db9a5ad511df",
      "css": "doc-new",
      "code": 59470,
      "src": "elusive"
    },
    {
      "uid": "6059b7737287728091ce7e4c600cca56",
      "css": "edit-alt",
      "code": 59471,
      "src": "elusive"
    },
    {
      "uid": "fffebbc872f4caf7f2d85bcafa741511",
      "css": "transport",
      "code": 59472,
      "src": "custom_icons",
      "selected": true,
      "svg": {
        "path": "M488.5-177.9Q482.8-177.9 480.4-176.2 392.5-119.6 327.4-32.5 262.2 54.5 227.2 161.3 192.2 268 192.2 382.1 192.2 450.7 206.1 521.8 176 551.8 148.3 592.1 144.2 599 145.8 606.7L246 946.3Q248.4 954.9 257.4 956.6 266.3 958.3 272.8 951.4 315.1 899.1 381.1 874.3V892.3Q381.1 899.1 385.6 903.8T396.5 908.6H578.9Q585.4 908.6 589.9 903.8T594.4 892.3V878.5Q661.9 904.3 703.4 955.7 707.5 961.7 714.8 961.7 717.3 961.7 718.1 960.9 722.2 960 725.4 957.4T730.3 950.6L829.6 611Q832 603.3 828 596.4 795.4 551.8 770.2 526.1 784 451.5 784 382.1 784 268 749 161.3 714 54.5 649.3-32.5 584.6-119.6 496.7-176.2 494.2-177.9 488.5-177.9ZM488.5 98.2Q520.3 98.2 547.5 114.5 574.8 130.8 590.7 159.1 606.6 187.4 606.6 219.6T591.9 277.4Q576.4 307.5 548.8 324.6 521.1 341.8 489.3 341.8T431.1 326.3Q404.7 310.9 388.4 283.4 370.5 253.4 370.5 220.4 370.5 187.4 386.4 159.1 402.2 130.8 429.5 114.5 456.8 98.2 488.5 98.2ZM696.1 289.4Q702.6 289.4 708.3 293.7 714 298 714.8 304 717.3 327.2 715.6 370.9 712.4 448.1 696.9 529.5 674.1 641.9 629.4 744.8 627.7 749.1 622 751.6T611.9 754.2 604.9 753.3Q598.4 749.9 594.8 743.5T593.5 731.9Q611.4 691.6 625.3 649.6 638.3 611 648.1 571.6 656.2 535.5 662.7 499.5 668.4 467.8 671.7 436.1 674.9 409.5 675.8 382.9 677.4 362.3 677.4 342.6 677.4 328 677 315.6 676.6 303.2 676.6 306.6 675.8 300.6 681.9 295.4 688 290.3 694.5 289.4H696.1ZM397.4 929.1Q390 929.1 384.7 936 379.5 942.8 382.7 951.4L473.1 1171.8Q474.7 1176.1 478.8 1179.1 482.8 1182.1 487.3 1182.1T495.9 1179.1Q499.9 1176.1 501.6 1171.8L591.1 951.4Q595.2 944.6 589.9 936.8 584.6 929.1 577.3 929.1H397.4ZM421 961.7H553.7L486.9 1124.6Z",
        "width": 966
      },
      "search": [
        "transport_brickable"
      ]
    },
    {
      "uid": "def2792314467ae866599c2ab1e59249",
      "css": "exit",
      "code": 59473,
      "src": "custom_icons",
      "selected": true,
      "svg": {
        "path": "M931 760V270Q931 200 881 151T762 101H633Q604 101 585 121T565 167Q565 196 585 215T633 235H762Q777 235 787 245T797 270V760Q797 774 787 785T762 795H174Q159 795 149 785T139 760V700Q139 673 119 653T72 633 25 653 6 700V760Q6 830 55 880T174 929H762Q832 929 881 880T931 760ZM687 670Q642 589 566 538T399 479Q357 476 325 481V584Q325 606 314 614T287 610L4 403Q-6 395-6 384-6 378-4 373T2 366L4 364 287 157Q302 145 314 153T325 183V267Q332 267 345 268 418 275 482 309T591 398 663 522 687 670Z",
        "width": 1000
      },
      "search": [
        "export_brickable"
      ]
    },
    {
      "uid": "043b585886018be7408f4c77c1a3759c",
      "css": "displeased",
      "code": 59474,
      "src": "fontelico"
    },
    {
      "uid": "8402c5fd2c652339f16018e7e608b28b",
      "css": "config",
      "code": 59475,
      "src": "custom_icons",
      "selected": true,
      "svg": {
        "path": "M202 542V452H302V542H202ZM300 258V346H200V258H300ZM300 650V738H200V650H300ZM382 542V452H782V542H382ZM890 50Q932 50 961 79T990 150V850Q990 890 961 920T890 950H100Q60 950 30 920T0 850V150Q0 108 30 79T100 50H890ZM890 850V150H100V850H890ZM780 258V346H380V258H780ZM780 650V738H380V650H780Z",
        "width": 1000
      },
      "search": [
        "v_brickable"
      ]
    },
    {
      "uid": "a7d6c4fac9b19b001070d0bdfb2ef25e",
      "css": "model",
      "code": 59478,
      "src": "custom_icons",
      "selected": true,
      "svg": {
        "path": "M990 150Q990 108 961 79T890 50H100Q62 50 30 79 0 106 0 150V185L-11.5 185.1Q-59 186-90.8 218-123 250-123.4 297-124 344-90.8 376-58 408-11.5 408.5L0 407.8V862Q0 902 30 932T100 962H890Q932 962 960.9 932 990 902 990 862V150ZM890 150V862H100V150H890ZM-11.8 251Q7.7 251 21.3 264.8T35 298Q35 317.4 21.3 331.2T-11.8 344.8Q-31.3 344.7-45.2 331.2-59 317.7-58.8 298-58.7 278.3-45.2 264.8-31.6 251.3-11.8 251Z",
        "width": 1000
      },
      "search": [
        "model"
      ]
    },
    {
      "uid": "3617de133269a2d209b0c78292dccd91",
      "css": "modules",
      "code": 59480,
      "src": "custom_icons",
      "selected": true,
      "svg": {
        "path": "M780 403.3L779.9 328.9 638.4 250.1V193L807.4 286.8 983.2 198.8V255.8L837 328.5 837.1 435.2ZM357.7 403.3L300.6 435.2 300.7 328.5 154.5 255.8V198.8L330.3 286.8 499.3 193V250.1L357.8 328.9ZM595.2 682.7L595.1 832.5 567.9 847.3 538 832.5 538.1 682.4 385.1 602.8V545.8L567.7 640.7 741.3 545.8V602.8ZM567.7 285.8L516 313 516 174.6 344.6 84.5 137.3 186V453.2L244.8 502.3 242.9 602.7 47.9 502.8V131.9L343.2-18.7 572.9 101.9 809.4-18.7 1092.8 131.9V502.8L880.8 608.7 878.9 504.8 999.3 447.1V190.9L809.8 84.5 622.6 179.4V317.6ZM567.7 982L272.4 831.3V471.8L567.7 321.2 851.1 471.8V831.3ZM567.3 877.9L761.7 774.4V532.5L567.3 429 362.8 532.5V774.4Z",
        "width": 1093
      },
      "search": [
        "modules-3d"
      ]
    },
    {
      "uid": "e99461abfef3923546da8d745372c995",
      "css": "gear",
      "code": 59404,
      "src": "fontawesome"
    },
    {
      "uid": "ef8bbeeb1c290b7185f3223ef836d34e",
      "css": "add-config",
      "code": 59476,
      "src": "custom_icons",
      "selected": true,
      "svg": {
        "path": "M202 542V452H302V542H202ZM300 258V346H200V258H300ZM300 650V738H200V650H300ZM382 542V452H474V542H382ZM501 962H100Q60 962 30 932T0 862V150Q0 108 30 79T100 50H890Q932 50 961 79T990 150V380L890 380V150H100V862H467V907ZM780 258V346H380V258H780ZM476 650V738H380V650H476ZM986.5 714.7V669.3Q987 660 980.2 653.6 974.3 647.3 964.5 647.3H851.7V534.5Q852 525 844.8 518.8 836.8 511.8 829 511.8H784.3Q775 512 768.5 518.8 761.6 526.4 761.6 534.5V647.3H649.5Q640 647 633.1 653.6 626.8 659.2 626.8 669.3V714.7Q627 724 633.1 730.5 638.8 736.8 649.5 736.8H761.6V849.5Q762 858 768.5 865.3 775.2 872.2 784.3 872.2H829Q838 872 844.8 865.3 851.7 858.3 851.7 849.5V736.8H964.5Q973 737 980.2 730.5 987 725 986.5 714.7ZM1076.6 523.2V860.9Q1077 902 1047 932.1 1016.7 962.3 975.2 962.3H638.1Q596 962 566.3 932.1 536.7 901.7 536.7 860.9V523.2Q537 482 566.3 452 597.2 421.8 638.1 421.8H975.2Q1017 422 1047 452T1076.6 523.2Z",
        "width": 1077
      },
      "search": [
        "add_config"
      ]
    },
    {
      "uid": "6b40017f42cb238f1917d1ac8e91ffe3",
      "css": "add-model",
      "code": 59477,
      "src": "custom_icons",
      "selected": true,
      "svg": {
        "path": "M-11.8 251Q7.7 251 21.3 264.8T35 298Q35 317.4 21.3 331.2T-11.8 344.8Q-31.3 344.7-45.2 331.2-59 317.7-58.8 298-58.7 278.3-45.2 264.8-31.6 251.3-11.8 251ZM0 185L-11.5 185.1Q-59 186-90.8 218-123 250-123.4 297-124 344-90.8 376-58 408-11.5 408.5L0 407.8V862Q0 902 30 932T100 962H501L467 907V862H100V150H890V380L990 380V150Q990 108 961 79T890 50H100Q62 50 30 79 0 106 0 150V185ZM986.5 714.7V669.3Q987 660 980.2 653.6 974.3 647.3 964.5 647.3H851.7V534.5Q852 525 844.8 518.8 836.8 511.8 829 511.8H784.3Q775 512 768.5 518.8 761.6 526.4 761.6 534.5V647.3H649.5Q640 647 633.1 653.6 626.8 659.2 626.8 669.3V714.7Q627 724 633.1 730.5 638.8 736.8 649.5 736.8H761.6V849.5Q762 858 768.5 865.3 775.2 872.2 784.3 872.2H829Q838 872 844.8 865.3 851.7 858.3 851.7 849.5V736.8H964.5Q973 737 980.2 730.5 987 725 986.5 714.7ZM1076.6 523.2V860.9Q1077 902 1047 932.1 1016.7 962.3 975.2 962.3H638.1Q596 962 566.3 932.1 536.7 901.7 536.7 860.9V523.2Q537 482 566.3 452 597.2 421.8 638.1 421.8H975.2Q1017 422 1047 452T1076.6 523.2Z",
        "width": 1077
      },
      "search": [
        "add_moduledot"
      ]
    },
    {
      "uid": "a9a79e10e6e19d7c840ad02277f79cc5",
      "css": "add-setting",
      "code": 59482,
      "src": "custom_icons",
      "selected": true,
      "svg": {
        "path": "M487.9 595.3V791.8L445.9 789.8Q441 790 436.4 786.4 433.2 784.1 432.3 778.2L421.4 708.2Q403 702 387.4 693.9L333.7 734.7Q329 738 324.2 738.1 319 738 314.6 734 276 694 252.1 670.1 249 667 249.4 662 249 657 252.8 653.1 259 646 271.8 628 284 610 292.2 600.8 282 582 276.6 563.4L207.2 553.2Q202 552 199.7 548.4 196.3 543.5 196.3 539.6V455.2Q196 450 199.7 446.4 202.8 442.2 206.5 441.6L277.2 430.8Q283 414 292.2 396.1 270 363 251.4 343.7 247 339 247.3 334.9 247 331 250.7 326 261 312 288.1 285.2 315 258 324.2 258 329.9 258 334.4 261.4L386.7 302.2Q403 293 420.7 288 425 262 432.3 217.2 433.9 206.4 445.9 206.4H530.2Q535 206 539 209.8 543.1 213.1 543.8 217.9L554 288Q573 294 588 301.6L642.4 261.4Q647 258 650.9 258 656 258 660.8 261.4 671 269 723.3 326 726 329 726 334.2 726 339 723.3 343L699.3 372.8H607.6Q559 373 522.8 408.4L522.5 406.7Q507 401 488 400.8 447 401 419.4 429.4 391 458 390.8 498.1 390 538 419.4 567.6 447 595 487.9 595.3ZM521 962H100Q60 962 30 932T0 862V150Q0 108 30 79T100 50H890Q932 50 961 79T990 150V372H890V150H100V862H487V907ZM986.5 714.7V669.3Q987 660 980.2 653.6 974.3 647.3 964.5 647.3H851.7V534.5Q852 525 844.8 518.8 836.8 511.8 829 511.8H784.3Q775 512 768.5 518.8 761.6 526.4 761.6 534.5V647.3H649.5Q640 647 633.1 653.6 626.8 659.2 626.8 669.3V714.7Q627 724 633.1 730.5 638.8 736.8 649.5 736.8H761.6V849.5Q762 858 768.5 865.3 775.2 872.2 784.3 872.2H829Q838 872 844.8 865.3 851.7 858.3 851.7 849.5V736.8H964.5Q973 737 980.2 730.5 987 725 986.5 714.7ZM1076.6 523.2V860.9Q1077 902 1047 932.1 1016.7 962.3 975.2 962.3H638.1Q596 962 566.3 932.1 536.7 901.7 536.7 860.9V523.2Q537 482 566.3 452 597.2 421.8 638.1 421.8H975.2Q1017 422 1047 452T1076.6 523.2Z",
        "width": 1077
      },
      "search": [
        "gear-window-add"
      ]
    },
    {
      "uid": "7c4c03a2c45b38cbcfc5a197e9148dd6",
      "css": "add-gear",
      "code": 59481,
      "src": "custom_icons",
      "selected": true,
      "svg": {
        "path": "M530 399Q489 357 429 357T328 399 286 500 328 601 429 643Q454 643 482.7 632.7L482.5 929H367Q359 929 353 924 348.3 920.2 347 912L331 809Q304 800 281 788L202 848Q195 853 188 853 180 853 174 847 111 790 82 753 78 748 78 741T83 728Q91 716 111 691T141 651Q126 623 118 596L16 581Q9 580 5 574 0 566 0 561V437Q0 430 5 424 10.2 417.7 15 417L119 401Q127 376 141 350 118 318 81 273 75 266 75 260T80 247Q95 227 135 187T188 147Q196.6 147 203 152L280 212Q304 199 330 191 334 155 347 87 350 71 367 71H491Q498 71 504 76 510 81 511 88L526 191Q554 200 576 211L656 152Q663 147 668.5 147 676 147 683 152 746 210 775 247 779 252 779 259T775 272Q766 284 746 309T716 349Q720 359 728.8 376H608.4Q561 376 530 399ZM986.5 714.7V669.3Q987 660 980.2 653.6 974.3 647.3 964.5 647.3H851.7V534.5Q852 525 844.8 518.8 836.8 511.8 829 511.8H784.3Q775 512 768.5 518.8 761.6 526.4 761.6 534.5V647.3H649.5Q640 647 633.1 653.6 626.8 659.2 626.8 669.3V714.7Q627 724 633.1 730.5 638.8 736.8 649.5 736.8H761.6V849.5Q762 858 768.5 865.3 775.2 872.2 784.3 872.2H829Q838 872 844.8 865.3 851.7 858.3 851.7 849.5V736.8H964.5Q973 737 980.2 730.5 987 725 986.5 714.7ZM1076.6 523.2V860.9Q1077 902 1047 932.1 1016.7 962.3 975.2 962.3H638.1Q596 962 566.3 932.1 536.7 901.7 536.7 860.9V523.2Q537 482 566.3 452 597.2 421.8 638.1 421.8H975.2Q1017 422 1047 452T1076.6 523.2Z",
        "width": 1077
      },
      "search": [
        "gear-add"
      ]
    },
    {
      "uid": "7969dafc74d3ab7d3c948b659d17cf8d",
      "css": "add-module",
      "code": 59479,
      "src": "custom_icons",
      "selected": true,
      "svg": {
        "path": "M986.5 714.7V669.3Q987 660 980.2 653.6 974.3 647.3 964.5 647.3H851.7V534.5Q852 525 844.8 518.8 836.8 511.8 829 511.8H784.3Q775 512 768.5 518.8 761.6 526.4 761.6 534.5V647.3H649.5Q640 647 633.1 653.6 626.8 659.2 626.8 669.3V714.7Q627 724 633.1 730.5 638.8 736.8 649.5 736.8H761.6V849.5Q762 858 768.5 865.3 775.2 872.2 784.3 872.2H829Q838 872 844.8 865.3 851.7 858.3 851.7 849.5V736.8H964.5Q973 737 980.2 730.5 987 725 986.5 714.7ZM1076.6 523.2V860.9Q1077 902 1047 932.1 1016.7 962.3 975.2 962.3H638.1Q596 962 566.3 932.1 536.7 901.7 536.7 860.9V523.2Q537 482 566.3 452 597.2 421.8 638.1 421.8H975.2Q1017 422 1047 452T1076.6 523.2ZM643.9 396.8L520 327.8V277.8L668 360 822 282.8V332.8L693.9 396.5ZM274 462L274.1 396.8 398 327.8V277.8L250 360 96 282.8V332.8L224.1 396.5 224 490ZM513 639.9L458 670 298 586.8V636.8L432.1 706.5 432 838 458.2 851 482 838 482.1 706.8 513 689.9V639.9ZM918 402V224.3L669.7 92.3 462.6 198 261.3 92.3 2.6 224.3V549.2L173.5 636.7 175.1 548.7 81 505.7V271.7L262.6 182.7 412.7 261.7 412.7 382.9 458 359.1 506.1 386.9V265.9L670 182.8 836.1 275.9V402H918ZM513 848.3L457.7 877.8 278.5 787.2V575.2L457.7 484.6 512.7 513.2Q513.1 469.5 545 437.7L458 390.1 199.3 522.1V837L458 969 513 939.8V848.3Z",
        "width": 1077
      },
      "search": [
        "modules-3d-add"
      ]
    }
  ]
}